<?xml version="1.0" encoding="UTF-8" standalone="no"?>
<svg
   xmlns:dc="http://purl.org/dc/elements/1.1/"
   xmlns:cc="http://creativecommons.org/ns#"
   xmlns:rdf="http://www.w3.org/1999/02/22-rdf-syntax-ns#"
   xmlns:svg="http://www.w3.org/2000/svg"
   xmlns="http://www.w3.org/2000/svg"
   xmlns:sodipodi="http://sodipodi.sourceforge.net/DTD/sodipodi-0.dtd"
   xmlns:inkscape="http://www.inkscape.org/namespaces/inkscape"
   width="600"
   height="315"
   viewBox="0 0 600 315"
   class="feather feather-book-open"
   version="1.1"
   id="svg6"
   sodipodi:docname="book.svg"
   style="fill:none;stroke:currentColor;stroke-width:2;stroke-linecap:round;stroke-linejoin:round"
   inkscape:export-filename="/home/amolith/repos/secluded/resources/pngs/books.png"
   inkscape:export-xdpi="374.39999"
   inkscape:export-ydpi="374.39999"
   inkscape:version="0.92.4 5da689c313, 2019-01-14">
  <metadata
     id="metadata12">
    <rdf:RDF>
      <cc:Work
         rdf:about="">
        <dc:format>image/svg+xml</dc:format>
        <dc:type
           rdf:resource="http://purl.org/dc/dcmitype/StillImage" />
        <dc:title></dc:title>
      </cc:Work>
    </rdf:RDF>
  </metadata>
  <defs
     id="defs10" />
  <sodipodi:namedview
     pagecolor="#ffffff"
     bordercolor="#666666"
     borderopacity="1"
     objecttolerance="10"
     gridtolerance="10"
     guidetolerance="10"
     inkscape:pageopacity="0"
     inkscape:pageshadow="2"
     inkscape:window-width="1336"
     inkscape:window-height="698"
     id="namedview8"
     showgrid="false"
     inkscape:zoom="0.86915209"
     inkscape:cx="162.2748"
     inkscape:cy="97.42861"
     inkscape:window-x="15"
     inkscape:window-y="35"
     inkscape:window-maximized="0"
     inkscape:current-layer="svg6" />
  <rect
     style="opacity:1;fill:#252627;fill-opacity:1;stroke:none;stroke-width:26.57234001;stroke-miterlimit:4;stroke-dasharray:none;stroke-opacity:1"
     id="rect847"
     width="600"
     height="315"
     x="0"
     y="0" />
  <path
     d="m 234.73497,98.807287 h 39.15902 A 26.106016,26.106016 0 0 1 300,124.9133 v 91.37106 a 19.579512,19.579512 0 0 0 -19.57951,-19.57951 h -45.68552 z"
     id="path2"
     inkscape:connector-curvature="0"
     style="stroke-width:13.05300808;stroke:#d2d2d2;stroke-opacity:1" />
  <path
     d="M 365.26505,98.807287 H 326.10602 A 26.106016,26.106016 0 0 0 300,124.9133 v 91.37106 a 19.579512,19.579512 0 0 1 19.57952,-19.57951 h 45.68553 z"
     id="path4"
     inkscape:connector-curvature="0"
     style="stroke-width:13.053;stroke:#d2d2d2;stroke-opacity:1;stroke-miterlimit:4;stroke-dasharray:none" />
</svg>
